{
  "dependencies": {
    "libraries": []
  },
  "dataStudio": {
    "name": "demo-test",
    "logoUrl": "logoUrl",
    "company": "manifestCompany",
    "companyUrl": "companyUrl",
    "addonUrl": "addonUrl",
    "supportUrl": "supportUrl",
    "description": "description",
    "sources": [""]
  }
}
